{
	"info": {
		"_postman_id": "998f6db8-1236-4f73-aed5-86ecaa475e6a",
		"name": "Forecast",
		"schema": "https://schema.getpostman.com/json/collection/v2.1.0/collection.json"
	},
	"item": [
		{
			"name": "Get Location Key",
			"request": {
				"method": "GET",
				"header": [],
				"url": {
					"raw": "localhost:8090/forecast/locationKey?city=123456",
					"host": [
						"localhost"
					],
					"port": "8090",
					"path": [
						"forecast",
						"locationKey"
					],
					"query": [
						{
							"key": "city",
							"value": "123456"
						}
					]
				}
			},
			"response": []
		},
		{
			"name": "Get Current Condition",
			"request": {
				"method": "GET",
				"header": [],
				"url": {
					"raw": "localhost:8090/forecast?locationKey=4596_PC",
					"host": [
						"localhost"
					],
					"port": "8090",
					"path": [
						"forecast"
					],
					"query": [
						{
							"key": "locationKey",
							"value": "4596_PC"
						}
					]
				}
			},
			"response": []
		},
		{
			"name": "Get Location Details",
			"request": {
				"method": "GET",
				"header": []
			},
			"response": []
		}
	]
}